{
  "apiVersion": "v1",
  "kind": "Template",
  "labels": {
    "app": "flask-mysql-persistent",
    "template": "flask-mysql-persistent"
  },
  "message": "The following service(s) have been created in your project: ${NAME}, ${DATABASE_SERVICE_NAME}.\n\n",
  "metadata": {
    "annotations": {
      "description": "Flask mysql template",
      "iconClass": "icon-python",
      "openshift.io/display-name": "Flask + Mysql",
      "openshift.io/documentation-url": "https://github.com/openshift/django-ex",
      "openshift.io/long-description": "This template defines resources needed to develop in Flask + Mysql.",
      "openshift.io/provider-display-name": "Codarama",
      "openshift.io/support-url": "http://www.codarama.com",
      "tags": "python,flask",
      "template.openshift.io/bindable": "false"
    },
    "name": "flask-mysql-persistent"
  },
  "objects": [
    {
      "apiVersion": "v1",
      "kind": "Secret",
      "metadata": {
        "name": "${NAME}"
      },
      "stringData": {
        "flask-secret-key": "${FLASK_SECRET_KEY}",
        "oauth-client-id": "${GOOGLE_OAUTH2_CLIENT_ID}",
        "oauth-client-secret": "${GOOGLE_OAUTH2_CLIENT_SECRET}",
        "database-password": "${DATABASE_PASSWORD}",
        "database-root-password": "${DATABASE_ROOT_PASSWORD}",
        "database-user": "${DATABASE_USER}"
      }
    },
    {
      "apiVersion": "v1",
      "kind": "Service",
      "metadata": {
        "annotations": {
          "description": "Exposes and load balances the application pods",
          "service.alpha.openshift.io/dependencies": "[{\"name\": \"${DATABASE_SERVICE_NAME}\", \"kind\": \"Service\"}]"
        },
        "name": "${NAME}"
      },
      "spec": {
        "ports": [
          {
            "name": "web",
            "port": 8080,
            "targetPort": 8080
          }
        ],
        "selector": {
          "name": "${NAME}"
        }
      }
    },
    {
      "apiVersion": "v1",
      "kind": "Route",
      "metadata": {
        "name": "${NAME}"
      },
      "spec": {
        "host": "${APPLICATION_DOMAIN}",
        "to": {
          "kind": "Service",
          "name": "${NAME}"
        }
      }
    },
    {
      "apiVersion": "v1",
      "kind": "ImageStream",
      "metadata": {
        "annotations": {
          "description": "Keeps track of changes in the application image"
        },
        "name": "${NAME}"
      }
    },
    {
      "apiVersion": "v1",
      "kind": "BuildConfig",
      "metadata": {
        "annotations": {
          "description": "Defines how to build the application",
          "template.alpha.openshift.io/wait-for-ready": "true",
          "service.alpha.openshift.io/dependencies": "[{\"name\": \"${DATABASE_SERVICE_NAME}\", \"kind\": \"Service\"}]"
        },
        "name": "${NAME}"
      },
      "spec": {
        "output": {
          "to": {
            "kind": "ImageStreamTag",
            "name": "${NAME}:latest"
          }
        },
        "postCommit": {
          "script": "cat /etc/resolv.conf; python manage.py db init; python manage.py db migrate"
        },
        "source": {
          "contextDir": "${CONTEXT_DIR}",
          "git": {
            "ref": "${SOURCE_REPOSITORY_REF}",
            "uri": "${SOURCE_REPOSITORY_URL}"
          },
          "type": "Git"
        },
        "strategy": {
          "sourceStrategy": {
            "env": [
              {
                "name": "PIP_INDEX_URL",
                "value": "${PIP_INDEX_URL}"
              },
              {
                "name": "GOOGLE_OAUTH2_CLIENT_ID",
                "valueFrom": {
                  "secretKeyRef": {
                    "key": "oauth-client-id",
                    "name": "${NAME}"
                  }
                }
              },
              {
                "name": "GOOGLE_OAUTH2_CLIENT_SECRET",
                "valueFrom": {
                  "secretKeyRef": {
                    "key": "oauth-client-secret",
                    "name": "${NAME}"
                  }
                }
              },
              {
                "name": "DATABASE_SERVICE_NAME",
                "value": "${DATABASE_SERVICE_NAME}"
              },
              {
                "name": "DATABASE_ENGINE",
                "value": "${DATABASE_ENGINE}"
              },
              {
                "name": "DATABASE_NAME",
                "value": "${DATABASE_NAME}"
              },
              {
                "name": "DATABASE_USER",
                "valueFrom": {
                  "secretKeyRef": {
                    "key": "database-user",
                    "name": "${NAME}"
                  }
                }
              },
              {
                "name": "DATABASE_PASSWORD",
                "valueFrom": {
                  "secretKeyRef": {
                    "key": "database-password",
                    "name": "${NAME}"
                  }
                }
              }
            ],
            "from": {
              "kind": "ImageStreamTag",
              "name": "python:${PYTHON_VERSION}",
              "namespace": "${NAMESPACE}"
            }
          },
          "type": "Source"
        },
        "triggers": [
          {
            "type": "ImageChange"
          },
          {
            "type": "ConfigChange"
          },
          {
            "github": {
              "secret": "${GITHUB_WEBHOOK_SECRET}"
            },
            "type": "GitHub"
          }
        ]
      }
    },
    {
      "apiVersion": "v1",
      "kind": "DeploymentConfig",
      "metadata": {
        "annotations": {
          "description": "Defines how to deploy the application server",
          "template.alpha.openshift.io/wait-for-ready": "true",
          "service.alpha.openshift.io/dependencies": "[{\"name\": \"${DATABASE_SERVICE_NAME}\", \"kind\": \"Service\"}]"
        },
        "name": "${NAME}"
      },
      "spec": {
        "replicas": 1,
        "selector": {
          "name": "${NAME}"
        },
        "strategy": {
          "type": "Recreate"
        },
        "template": {
          "metadata": {
            "labels": {
              "name": "${NAME}"
            },
            "name": "${NAME}"
          },
          "spec": {
            "containers": [
              {
                "env": [
                  {
                    "name": "GOOGLE_OAUTH2_CLIENT_ID",
                    "valueFrom": {
                      "secretKeyRef": {
                        "key": "oauth-client-id",
                        "name": "${NAME}"
                      }
                    }
                  },
                  {
                    "name": "GOOGLE_OAUTH2_CLIENT_SECRET",
                    "valueFrom": {
                      "secretKeyRef": {
                        "key": "oauth-client-secret",
                        "name": "${NAME}"
                      }
                    }
                  },
                  {
                    "name": "DATABASE_SERVICE_NAME",
                    "value": "${DATABASE_SERVICE_NAME}.jenkins.svc"
                  },
                  {
                    "name": "DATABASE_ENGINE",
                    "value": "${DATABASE_ENGINE}"
                  },
                  {
                    "name": "DATABASE_NAME",
                    "value": "${DATABASE_NAME}"
                  },
                  {
                    "name": "DATABASE_USER",
                    "valueFrom": {
                      "secretKeyRef": {
                        "key": "database-user",
                        "name": "${NAME}"
                      }
                    }
                  },
                  {
                    "name": "DATABASE_PASSWORD",
                    "valueFrom": {
                      "secretKeyRef": {
                        "key": "database-password",
                        "name": "${NAME}"
                      }
                    }
                  },
                  {
                    "name": "APP_CONFIG",
                    "value": "${APP_CONFIG}"
                  },
                  {
                    "name": "APP_MODULE",
                    "value": "${APP_MODULE}"
                  },
                  {
                    "name": "FLASK_SECRET_KEY",
                    "valueFrom": {
                      "secretKeyRef": {
                        "key": "flask-secret-key",
                        "name": "${NAME}"
                      }
                    }
                  }
                ],
                "image": " ",
                "livenessProbe": {
                  "httpGet": {
                    "path": "/planner/health",
                    "port": 8080
                  },
                  "initialDelaySeconds": 30,
                  "timeoutSeconds": 3
                },
                "name": "flask-mysql-persistent",
                "ports": [
                  {
                    "containerPort": 8080
                  }
                ],
                "readinessProbe": {
                  "httpGet": {
                    "path": "/planner/health",
                    "port": 8080
                  },
                  "initialDelaySeconds": 3,
                  "timeoutSeconds": 3
                },
                "resources": {
                  "limits": {
                    "memory": "${MEMORY_LIMIT}"
                  }
                }
              }
            ]
          }
        },
        "triggers": [
          {
            "imageChangeParams": {
              "automatic": true,
              "containerNames": [
                "flask-mysql-persistent"
              ],
              "from": {
                "kind": "ImageStreamTag",
                "name": "${NAME}:latest"
              }
            },
            "type": "ImageChange"
          },
          {
            "type": "ConfigChange"
          }
        ]
      }
    },
    {
      "apiVersion": "v1",
      "kind": "PersistentVolumeClaim",
      "metadata": {
        "name": "${DATABASE_SERVICE_NAME}",
	"annotations": { 
   		"volume.beta.kubernetes.io/storage-class": "local-ssd"
	}
      },
      "spec": {
        "accessModes": [
          "ReadWriteOnce"
        ],
        "resources": {
          "requests": {
            "storage": "${VOLUME_CAPACITY}"
          }
        },
	"storageClassName": "local-ssd"
      }
    },
    {
      "apiVersion": "v1",
      "kind": "Service",
      "metadata": {
        "annotations": {
          "description": "Exposes the database server"
        },
        "name": "${DATABASE_SERVICE_NAME}"
      },
      "spec": {
        "ports": [
          {
            "name": "mysql",
            "port": 3306,
            "targetPort": 3306
          }
        ],
        "selector": {
          "name": "${DATABASE_SERVICE_NAME}"
        }
      }
    },
    {
      "apiVersion": "v1",
      "kind": "DeploymentConfig",
      "metadata": {
        "annotations": {
          "description": "Defines how to deploy the database",
          "template.alpha.openshift.io/wait-for-ready": "true"
        },
        "name": "${DATABASE_SERVICE_NAME}"
      },
      "spec": {
        "replicas": 1,
        "selector": {
          "name": "${DATABASE_SERVICE_NAME}"
        },
        "strategy": {
          "type": "Recreate"
        },
        "template": {
          "metadata": {
            "labels": {
              "name": "${DATABASE_SERVICE_NAME}"
            },
            "name": "${DATABASE_SERVICE_NAME}"
          },
          "spec": {
            "containers": [
              {
                "env": [
                  {
                    "name": "MYSQL_USER",
                    "valueFrom": {
                      "secretKeyRef": {
                        "key": "database-user",
                        "name": "${NAME}"
                      }
                    }
                  },
                  {
                    "name": "MYSQL_PASSWORD",
                    "valueFrom": {
                      "secretKeyRef": {
                        "key": "database-password",
                        "name": "${NAME}"
                      }
                    }
                  },
                  {
                    "name": "MYSQL_ROOT_PASSWORD",
                    "valueFrom": {
                      "secretKeyRef": {
                        "key": "database-root-password",
                        "name": "${NAME}"
                      }
                    }
                  },
                  {
                    "name": "MYSQL_DATABASE",
                    "value": "${DATABASE_NAME}"
                  }
                ],
                "image": " ",
                "livenessProbe": {
                  "initialDelaySeconds": 30,
                  "tcpSocket": {
                    "port": 3306
                  },
                  "timeoutSeconds": 1
                },
                "name": "mysql",
                "ports": [
                  {
                    "containerPort": 3306
                  }
                ],
                "readinessProbe": {
                  "exec": {
                    "command": [
                      "/bin/sh",
                      "-i",
                      "-c",
                      "MYSQL_PWD=\"$MYSQL_PASSWORD\" mysql -h 127.0.0.1 -u $MYSQL_USER -D $MYSQL_DATABASE -e 'SELECT 1'"
                    ]
                  },
                  "initialDelaySeconds": 5,
                  "timeoutSeconds": 1
                },
                "resources": {
                  "limits": {
                    "memory": "${MEMORY_MYSQL_LIMIT}"
                  }
                },
                "volumeMounts": [
                  {
                    "mountPath": "/var/lib/mysql/data",
                    "name": "${DATABASE_SERVICE_NAME}-data"
                  }
                ]
              }
            ],
            "volumes": [
              {
                "name": "${DATABASE_SERVICE_NAME}-data",
                "persistentVolumeClaim": {
                  "claimName": "${DATABASE_SERVICE_NAME}"
                }
              }
            ]
          }
        },
        "triggers": [
          {
            "imageChangeParams": {
              "automatic": true,
              "containerNames": [
                "mysql"
              ],
              "from": {
                "kind": "ImageStreamTag",
                "name": "mysql:${MYSQL_VERSION}",
                "namespace": "${NAMESPACE}"
              }
            },
            "type": "ImageChange"
          },
          {
            "type": "ConfigChange"
          }
        ]
      }
    }
  ],
  "parameters": [
    {
      "description": "The name assigned to all of the frontend objects defined in this template.",
      "displayName": "Name",
      "name": "NAME",
      "required": true,
      "value": "flask-mysql-persistent"
    },
    {
      "description": "The OpenShift Namespace where the ImageStream resides.",
      "displayName": "Namespace",
      "name": "NAMESPACE",
      "required": true,
      "value": "openshift"
    },
    {
      "description": "Version of Python image to be used (3.4, 3.5, 3.6 or latest).",
      "displayName": "Version of Python Image",
      "name": "PYTHON_VERSION",
      "required": true,
      "value": "3.6"
    },
    {
      "description": "Version of Mysql image to be used .",
      "displayName": "Version of Mysql Image",
      "name": "MYSQL_VERSION",
      "required": true,
      "value": "5.6"
    },
    {
      "description": "Maximum amount of memory the flask container can use.",
      "displayName": "Memory Limit",
      "name": "MEMORY_LIMIT",
      "required": true,
      "value": "512Mi"
    },
    {
      "description": "Maximum amount of memory the Mysql container can use.",
      "displayName": "Memory Limit (MYSQL)",
      "name": "MEMORY_MYSQL_LIMIT",
      "required": true,
      "value": "512Mi"
    },
    {
      "description": "Volume space available for data, e.g. 512Mi, 2Gi",
      "displayName": "Volume Capacity",
      "name": "VOLUME_CAPACITY",
      "required": true,
      "value": "1Gi"
    },
    {
      "description": "The URL of the repository with your application source code.",
      "displayName": "Git Repository URL",
      "name": "SOURCE_REPOSITORY_URL",
      "required": true,
      "value": "https://ben_vanhaeren@bitbucket.org/ben_vanhaeren/csaplanner.git"
    },
    {
      "description": "Set this to a branch name, tag or other ref of your repository if you are not using the default branch.",
      "displayName": "Git Reference",
      "name": "SOURCE_REPOSITORY_REF"
    },
    {
      "description": "Set this to the relative path to your project if it is not in the root of your repository.",
      "displayName": "Context Directory",
      "name": "CONTEXT_DIR",
      "value": ""
    },
    {
      "description": "The exposed hostname that will route to the Django service, if left blank a value will be defaulted.",
      "displayName": "Application Hostname",
      "name": "APPLICATION_DOMAIN",
      "value": ""
    },
    {
      "description": "Github trigger secret.  A difficult to guess string encoded as part of the webhook URL.  Not encrypted.",
      "displayName": "GitHub Webhook Secret",
      "from": "[a-zA-Z0-9]{40}",
      "generate": "expression",
      "name": "GITHUB_WEBHOOK_SECRET"
    },
    {
      "displayName": "Oauth client id",
      "name": "GOOGLE_OAUTH2_CLIENT_ID",
      "required": true
    },
    {
      "displayName": "Oauth client secret",
      "name": "GOOGLE_OAUTH2_CLIENT_SECRET",
      "required": true
    },
    {
      "displayName": "Database Service Name",
      "name": "DATABASE_SERVICE_NAME",
      "required": true,
      "value": "mysql"
    },
    {
      "description": "Database engine: postgresql, mysql or sqlite (default).",
      "displayName": "Database Engine",
      "name": "DATABASE_ENGINE",
      "required": true,
      "value": "mysql"
    },
    {
      "displayName": "Database Name",
      "name": "DATABASE_NAME",
      "required": true,
      "value": "flaskapi"
    },
    {
      "displayName": "Database Username",
      "name": "DATABASE_USER",
      "required": true,
      "value": "flaskapi"
    },
    {
      "displayName": "Database User Password",
      "from": "[a-zA-Z0-9]{16}",
      "generate": "expression",
      "name": "DATABASE_PASSWORD"
    },
    {
      "description": "Password for the MySQL root user.",
      "displayName": "MySQL root user Password",
      "from": "[a-zA-Z0-9]{16}",
      "generate": "expression",
      "name": "DATABASE_ROOT_PASSWORD",
      "required": true
    },
    {
      "description": "Relative path to Gunicorn configuration file (optional).",
      "displayName": "Application Configuration File Path",
      "name": "APP_CONFIG",
      "value": "manage.wsgi"
    },
    {
      "description": "Relative path to Gunicorn module (optional).",
      "displayName": "Application module Path",
      "name": "APP_MODULE",
      "value": "wsgi:application"
    },
    {
      "description": "Set this to a long random string.",
      "displayName": "Flask Secret Key",
      "from": "[\\w]{50}",
      "generate": "expression",
      "name": "FLASK_SECRET_KEY"
    },
    {
      "description": "The custom PyPi index URL",
      "displayName": "Custom PyPi Index URL",
      "name": "PIP_INDEX_URL",
      "value": ""
    }
  ]
}
